<?xml version="1.0" encoding="utf-8"?>
<!-- Generator: Adobe Illustrator 16.0.4, SVG Export Plug-In . SVG Version: 6.00 Build 0)  -->
<!DOCTYPE svg PUBLIC "-//W3C//DTD SVG 1.1//EN" "http://www.w3.org/Graphics/SVG/1.1/DTD/svg11.dtd" [
	<!ENTITY st0 "fill:#9C9B9B;">
]>
<svg version="1.1" id="Ebene_1" xmlns="http://www.w3.org/2000/svg" xmlns:xlink="http://www.w3.org/1999/xlink" x="0px" y="0px"
	 width="508.058px" height="75.294px" viewBox="0 0 508.058 75.294" style="enable-background:new 0 0 508.058 75.294;"
	 xml:space="preserve">
<g>
	<path d="M13.432,0h3.544l13.059,33.299H26.63l-4.058-10.353H7.416L3.405,33.299H0L13.432,0z M8.396,20.24H21.5L15.064,3.171
		L8.396,20.24z"/>
	<path d="M32.561,0h2.938v33.299h-2.938V0z"/>
	<path d="M45.808,9.234h4.897v2.472h-4.897v16.23c0,1.912,0.28,3.031,2.378,3.171c0.839,0,1.679-0.046,2.519-0.14v2.518
		c-0.887,0-1.726,0.094-2.612,0.094c-3.918,0-5.27-1.306-5.224-5.41V11.706h-4.197V9.234h4.197V2.005h2.938V9.234z"/>
	<path d="M69.363,16.276c-0.14-3.638-2.938-5.27-6.296-5.27c-2.612,0-5.69,1.026-5.69,4.15c0,2.611,2.985,3.544,4.991,4.057
		l3.917,0.886c3.358,0.513,6.856,2.472,6.856,6.67c0,5.223-5.177,7.228-9.655,7.228c-5.596,0-9.42-2.612-9.886-8.488h2.938
		c0.234,3.964,3.172,6.016,7.089,6.016c2.752,0,6.576-1.212,6.576-4.57c0-2.798-2.612-3.731-5.27-4.384l-3.778-0.839
		c-3.824-1.026-6.715-2.332-6.715-6.436c0-4.896,4.804-6.762,9.047-6.762c4.804,0,8.628,2.518,8.814,7.741H69.363z"/>
	<path d="M82.054,9.234h4.897v2.472h-4.897v16.23c0,1.912,0.28,3.031,2.378,3.171c0.839,0,1.679-0.046,2.519-0.14v2.518
		c-0.887,0-1.726,0.094-2.612,0.094c-3.918,0-5.27-1.306-5.224-5.41V11.706h-4.197V9.234h4.197V2.005h2.938V9.234z"/>
	<path d="M90.917,16.603c0.28-5.643,4.244-8.067,9.748-8.067c4.244,0,8.86,1.306,8.86,7.741v12.778c0,1.119,0.56,1.772,1.726,1.772
		c0.327,0,0.699-0.093,0.932-0.187v2.472c-0.653,0.14-1.119,0.187-1.912,0.187c-2.985,0-3.451-1.679-3.451-4.197h-0.093
		c-2.053,3.125-4.151,4.896-8.768,4.896c-4.431,0-8.068-2.191-8.068-7.042c0-6.763,6.576-6.996,12.918-7.742
		c2.425-0.28,3.778-0.606,3.778-3.265c0-3.964-2.845-4.943-6.296-4.943c-3.638,0-6.343,1.679-6.436,5.596H90.917z M106.588,20.147
		h-0.094c-0.373,0.699-1.679,0.932-2.472,1.072c-4.99,0.887-11.192,0.839-11.192,5.55c0,2.938,2.611,4.756,5.363,4.756
		c4.477,0,8.441-2.845,8.395-7.555V20.147z"/>
	<path d="M136.582,33.299h-2.706v-4.571h-0.093c-1.26,3.125-5.084,5.27-8.582,5.27c-7.322,0-10.819-5.922-10.819-12.732
		c0-6.809,3.498-12.731,10.819-12.731c3.591,0,7.089,1.819,8.348,5.269h0.094V0h2.938V33.299z M125.202,31.526
		c6.25,0,8.441-5.269,8.441-10.26c0-4.99-2.192-10.259-8.441-10.259c-5.597,0-7.882,5.27-7.882,10.259
		C117.32,26.257,119.605,31.526,125.202,31.526z"/>
	<path d="M146.848,9.234h4.897v2.472h-4.897v16.23c0,1.912,0.28,3.031,2.378,3.171c0.839,0,1.679-0.046,2.519-0.14v2.518
		c-0.886,0-1.726,0.094-2.612,0.094c-3.917,0-5.27-1.306-5.224-5.41V11.706h-4.197V9.234h4.197V2.005h2.938V9.234z"/>
	<path d="M155.945,0h2.938v13.385h0.094c1.072-2.892,4.291-4.85,7.694-4.85c6.763,0,8.814,3.544,8.814,9.281v15.483h-2.938V18.281
		c0-4.15-1.353-7.274-6.109-7.274c-4.664,0-7.462,3.544-7.556,8.254v14.038h-2.938V0z"/>
	<path d="M180.761,16.603c0.28-5.643,4.245-8.067,9.748-8.067c4.244,0,8.86,1.306,8.86,7.741v12.778
		c0,1.119,0.561,1.772,1.726,1.772c0.327,0,0.7-0.093,0.932-0.187v2.472c-0.652,0.14-1.118,0.187-1.912,0.187
		c-2.984,0-3.451-1.679-3.451-4.197h-0.093c-2.052,3.125-4.15,4.896-8.768,4.896c-4.431,0-8.069-2.191-8.069-7.042
		c0-6.763,6.576-6.996,12.919-7.742c2.425-0.28,3.777-0.606,3.777-3.265c0-3.964-2.845-4.943-6.296-4.943
		c-3.638,0-6.343,1.679-6.436,5.596H180.761z M196.432,20.147h-0.093c-0.373,0.699-1.679,0.932-2.472,1.072
		c-4.99,0.887-11.192,0.839-11.192,5.55c0,2.938,2.611,4.756,5.363,4.756c4.477,0,8.441-2.845,8.395-7.555V20.147z"/>
	<path d="M224.746,33.299h-2.705v-4.337h-0.093c-1.54,3.217-4.711,5.036-8.301,5.036c-6.063,0-8.441-3.544-8.441-9.141V9.234h2.938
		v15.669c0.14,4.338,1.772,6.623,6.436,6.623c5.037,0,7.229-4.756,7.229-9.654V9.234h2.938V33.299z"/>
	<path d="M244.713,16.276c-0.14-3.638-2.938-5.27-6.296-5.27c-2.612,0-5.69,1.026-5.69,4.15c0,2.611,2.984,3.544,4.991,4.057
		l3.917,0.886c3.357,0.513,6.856,2.472,6.856,6.67c0,5.223-5.177,7.228-9.654,7.228c-5.596,0-9.42-2.612-9.887-8.488h2.938
		c0.233,3.964,3.172,6.016,7.089,6.016c2.752,0,6.576-1.212,6.576-4.57c0-2.798-2.612-3.731-5.271-4.384l-3.777-0.839
		c-3.824-1.026-6.715-2.332-6.715-6.436c0-4.896,4.803-6.762,9.047-6.762c4.804,0,8.628,2.518,8.814,7.741H244.713z"/>
	<path d="M262.677,0h26.396v2.705h-11.612v30.594h-3.172V2.705h-11.612V0z"/>
	<path d="M287.354,9.234h2.705v5.643h0.094c1.492-3.871,4.756-6.156,9.094-5.97v2.938c-5.316-0.28-8.954,3.638-8.954,8.628v12.825
		h-2.938V9.234z"/>
	<path d="M301.769,16.603c0.279-5.643,4.244-8.067,9.747-8.067c4.244,0,8.86,1.306,8.86,7.741v12.778
		c0,1.119,0.561,1.772,1.727,1.772c0.326,0,0.699-0.093,0.932-0.187v2.472c-0.652,0.14-1.118,0.187-1.911,0.187
		c-2.985,0-3.452-1.679-3.452-4.197h-0.093c-2.052,3.125-4.15,4.896-8.768,4.896c-4.431,0-8.068-2.191-8.068-7.042
		c0-6.763,6.576-6.996,12.919-7.742c2.425-0.28,3.777-0.606,3.777-3.265c0-3.964-2.845-4.943-6.296-4.943
		c-3.638,0-6.344,1.679-6.437,5.596H301.769z M317.438,20.147h-0.094c-0.373,0.699-1.679,0.932-2.472,1.072
		c-4.99,0.887-11.192,0.839-11.192,5.55c0,2.938,2.611,4.756,5.363,4.756c4.477,0,8.441-2.845,8.395-7.555V20.147z"/>
	<path d="M323.554,9.234h3.265l7.555,21.126h0.094l7.461-21.126h3.032l-9.001,24.064h-3.124L323.554,9.234z"/>
	<path d="M349.582,22.059c0.048,4.291,2.286,9.467,7.929,9.467c4.291,0,6.623-2.518,7.556-6.156h2.938
		c-1.259,5.457-4.43,8.627-10.493,8.627c-7.648,0-10.866-5.875-10.866-12.732c0-6.342,3.218-12.731,10.866-12.731
		c7.742,0,10.819,6.762,10.587,13.524H349.582z M365.159,19.587c-0.14-4.43-2.891-8.581-7.648-8.581
		c-4.804,0-7.462,4.197-7.929,8.581H365.159z"/>
	<path d="M372.067,9.234h2.705v4.057h0.14c1.539-2.891,4.058-4.756,7.883-4.756c3.171,0,6.016,1.539,6.901,4.71
		c1.446-3.171,4.477-4.71,7.648-4.71c5.27,0,7.975,2.751,7.975,8.441v16.322h-2.938V17.116c0-3.963-1.492-6.109-5.69-6.109
		c-5.083,0-6.528,4.197-6.528,8.674v13.618h-2.938V16.977c0.047-3.265-1.307-5.97-5.037-5.97c-5.083,0-7.135,3.824-7.182,8.861
		v13.431h-2.938V9.234z"/>
	<path d="M430.42,33.299h-2.705v-4.337h-0.093c-1.539,3.217-4.711,5.036-8.302,5.036c-6.062,0-8.44-3.544-8.44-9.141V9.234h2.938
		v15.669c0.14,4.338,1.772,6.623,6.436,6.623c5.037,0,7.229-4.756,7.229-9.654V9.234h2.938V33.299z M414.937,5.083v-4.71h3.171v4.71
		H414.937z M423.191,5.083v-4.71h3.172v4.71H423.191z"/>
	<path d="M435.931,9.234h2.938v4.15h0.093c1.072-2.892,4.29-4.85,7.695-4.85c6.763,0,8.814,3.544,8.814,9.281v15.483h-2.939V18.281
		c0-4.15-1.352-7.274-6.109-7.274c-4.664,0-7.461,3.544-7.554,8.254v14.038h-2.938V9.234z"/>
	<path d="M482.201,33.299h-2.705v-4.571h-0.093c-1.259,3.125-5.084,5.27-8.581,5.27c-7.323,0-10.82-5.922-10.82-12.732
		c0-6.809,3.497-12.731,10.82-12.731c3.59,0,7.088,1.819,8.349,5.269h0.093V0h2.938V33.299z M470.822,31.526
		c6.249,0,8.441-5.269,8.441-10.26c0-4.99-2.192-10.259-8.441-10.259c-5.597,0-7.882,5.27-7.882,10.259
		C462.94,26.257,465.226,31.526,470.822,31.526z"/>
	<path d="M489.53,22.059c0.047,4.291,2.286,9.467,7.929,9.467c4.29,0,6.622-2.518,7.556-6.156h2.938
		c-1.259,5.457-4.431,8.627-10.493,8.627c-7.648,0-10.866-5.875-10.866-12.732c0-6.342,3.218-12.731,10.866-12.731
		c7.741,0,10.82,6.762,10.586,13.524H489.53z M505.107,19.587c-0.141-4.43-2.893-8.581-7.648-8.581
		c-4.804,0-7.461,4.197-7.929,8.581H505.107z"/>
	<path style="&st0;" d="M21.326,66.366c0,6.004-3.546,8.928-9.488,8.928c-5.973,0-9.457-2.894-9.457-8.928V52.553h4.884v13.812
		c0,2.426,0.623,4.821,4.573,4.821c3.484,0,4.604-1.523,4.604-4.821V52.553h4.885V66.366z"/>
	<path style="&st0;" d="M25.051,58.682h4.2v2.986h0.062c0.809-2.022,2.987-3.423,5.134-3.423c0.311,0,0.684,0.062,0.964,0.156v4.106
		c-0.405-0.093-1.058-0.155-1.587-0.155c-3.235,0-4.355,2.333-4.355,5.164v7.248h-4.418V58.682z"/>
	<path style="&st0;" d="M37.274,52.553h4.417v22.211h-4.417V52.553z"/>
	<path style="&st0;" d="M44.986,63.628c0.249-4.138,3.951-5.382,7.56-5.382c3.204,0,7.061,0.716,7.061,4.574v8.368
		c0,1.463,0.156,2.925,0.561,3.578h-4.48c-0.155-0.498-0.28-1.026-0.311-1.555c-1.4,1.462-3.453,1.991-5.413,1.991
		c-3.049,0-5.475-1.524-5.475-4.821c0-3.64,2.738-4.511,5.475-4.885c2.707-0.404,5.227-0.311,5.227-2.115
		c0-1.898-1.307-2.178-2.862-2.178c-1.68,0-2.769,0.685-2.925,2.426H44.986z M55.19,66.895c-0.747,0.653-2.302,0.685-3.671,0.933
		c-1.369,0.28-2.613,0.747-2.613,2.364c0,1.649,1.275,2.054,2.706,2.054c3.453,0,3.578-2.738,3.578-3.702V66.895z"/>
	<path style="&st0;" d="M78.112,74.765h-4.201v-2.24h-0.093c-1.12,1.805-3.049,2.675-4.915,2.675c-4.697,0-5.88-2.644-5.88-6.626
		v-9.892h4.417v9.083c0,2.644,0.778,3.951,2.832,3.951c2.396,0,3.421-1.337,3.421-4.604v-8.43h4.418V74.765z"/>
	<path style="&st0;" d="M81.465,52.553h4.417v8.088h0.062c1.089-1.649,3.08-2.396,5.071-2.396c3.204,0,6.657,2.583,6.657,8.462
		c0,5.911-3.453,8.493-6.657,8.493c-2.365,0-4.324-0.715-5.289-2.489h-0.062v2.053h-4.2V52.553z M89.492,61.575
		c-2.613,0-3.764,2.458-3.764,5.164c0,2.675,1.151,5.133,3.764,5.133c2.614,0,3.764-2.458,3.764-5.133
		C93.256,64.032,92.105,61.575,89.492,61.575z"/>
	<path style="&st0;" d="M124.201,74.765h-4.2v-2.24h-0.093c-1.121,1.805-3.049,2.675-4.915,2.675c-4.697,0-5.88-2.644-5.88-6.626
		v-9.892h4.417v9.083c0,2.644,0.778,3.951,2.831,3.951c2.396,0,3.422-1.337,3.422-4.604v-8.43h4.418V74.765z"/>
	<path style="&st0;" d="M127.555,58.682h4.2v2.24h0.093c1.12-1.805,3.049-2.676,4.915-2.676c4.697,0,5.88,2.645,5.88,6.627v9.892
		h-4.418v-9.083c0-2.645-0.778-3.952-2.83-3.952c-2.396,0-3.423,1.338-3.423,4.604v8.43h-4.417V58.682z"/>
	<path style="&st0;" d="M151.596,58.682h3.235v2.955h-3.235v7.964c0,1.493,0.373,1.866,1.866,1.866c0.466,0,0.903-0.031,1.369-0.124
		v3.453c-0.747,0.124-1.711,0.155-2.582,0.155c-2.707,0-5.07-0.622-5.07-3.826v-9.488h-2.676v-2.955h2.676V53.86h4.417V58.682z"/>
	<path style="&st0;" d="M160.583,67.796c0.124,2.8,1.493,4.076,3.951,4.076c1.773,0,3.204-1.089,3.484-2.084h3.888
		c-1.245,3.795-3.888,5.413-7.529,5.413c-5.07,0-8.212-3.484-8.212-8.461c0-4.821,3.329-8.493,8.212-8.493
		c5.476,0,8.12,4.604,7.809,9.551H160.583z M167.77,64.997c-0.405-2.24-1.369-3.422-3.516-3.422c-2.8,0-3.609,2.177-3.67,3.422
		H167.77z"/>
	<path style="&st0;" d="M174.794,58.682h4.2v2.986h0.062c0.809-2.022,2.986-3.423,5.132-3.423c0.312,0,0.685,0.062,0.965,0.156
		v4.106c-0.405-0.093-1.058-0.155-1.587-0.155c-3.235,0-4.355,2.333-4.355,5.164v7.248h-4.417V58.682z"/>
	<path style="&st0;" d="M196.004,52.553h9.582c5.755,0,10.079,3.609,10.079,10.981c0,6.439-3.297,11.23-10.079,11.23h-9.582V52.553z
		 M200.889,70.659h4.355c2.831,0,5.538-1.743,5.538-6.658c0-4.479-1.556-7.341-6.408-7.341h-3.484V70.659z"/>
	<path style="&st0;" d="M222.222,67.796c0.124,2.8,1.494,4.076,3.951,4.076c1.773,0,3.204-1.089,3.484-2.084h3.888
		c-1.244,3.795-3.888,5.413-7.528,5.413c-5.07,0-8.213-3.484-8.213-8.461c0-4.821,3.329-8.493,8.213-8.493
		c5.475,0,8.12,4.604,7.809,9.551H222.222z M229.408,64.997c-0.405-2.24-1.369-3.422-3.515-3.422c-2.8,0-3.609,2.177-3.671,3.422
		H229.408z"/>
	<path style="&st0;" d="M236.433,58.682h4.2v2.24h0.094c1.12-1.805,3.049-2.676,4.915-2.676c4.697,0,5.88,2.645,5.88,6.627v9.892
		h-4.418v-9.083c0-2.645-0.778-3.952-2.831-3.952c-2.396,0-3.422,1.338-3.422,4.604v8.43h-4.417V58.682z"/>
	<path style="&st0;" d="M255.28,52.553h4.417v11.915l5.568-5.786h5.227l-6.066,5.91l6.751,10.172h-5.352l-4.417-7.186l-1.711,1.648
		v5.537h-4.417V52.553z"/>
	<path style="&st0;" d="M272.852,58.682h4.168v2.177h0.062c1.15-1.648,2.83-2.614,4.915-2.614c2.021,0,3.826,0.747,4.697,2.676
		c0.933-1.4,2.613-2.676,4.854-2.676c3.422,0,5.879,1.587,5.879,5.755v10.764h-4.417V65.65c0-2.147-0.187-3.92-2.707-3.92
		c-2.488,0-2.955,2.053-2.955,4.076v8.959h-4.418v-9.021c0-1.866,0.125-4.013-2.675-4.013c-0.871,0-2.986,0.56-2.986,3.702v9.333
		h-4.417V58.682z"/>
	<path style="&st0;" d="M300.715,63.628c0.249-4.138,3.951-5.382,7.561-5.382c3.204,0,7.061,0.716,7.061,4.574v8.368
		c0,1.463,0.156,2.925,0.561,3.578h-4.479c-0.155-0.498-0.28-1.026-0.312-1.555c-1.399,1.462-3.453,1.991-5.413,1.991
		c-3.049,0-5.475-1.524-5.475-4.821c0-3.64,2.737-4.511,5.475-4.885c2.707-0.404,5.227-0.311,5.227-2.115
		c0-1.898-1.307-2.178-2.861-2.178c-1.681,0-2.769,0.685-2.925,2.426H300.715z M310.919,66.895
		c-0.747,0.653-2.302,0.685-3.671,0.933c-1.369,0.28-2.613,0.747-2.613,2.364c0,1.649,1.275,2.054,2.706,2.054
		c3.453,0,3.578-2.738,3.578-3.702V66.895z"/>
	<path style="&st0;" d="M318.878,52.553h4.417v22.211h-4.417V52.553z"/>
	<path style="&st0;" d="M330.199,69.539c0.03,1.929,1.648,2.707,3.391,2.707c1.275,0,2.893-0.498,2.893-2.054
		c0-1.337-1.835-1.804-5.009-2.488c-2.55-0.56-5.101-1.462-5.101-4.292c0-4.107,3.546-5.165,6.999-5.165
		c3.516,0,6.751,1.183,7.093,5.134h-4.2c-0.124-1.711-1.431-2.178-3.018-2.178c-0.995,0-2.457,0.187-2.457,1.494
		c0,1.586,2.488,1.804,5.009,2.395c2.582,0.591,5.101,1.524,5.101,4.511c0,4.231-3.67,5.599-7.341,5.599
		c-3.733,0-7.372-1.399-7.56-5.662H330.199z"/>
	<path style="&st0;" d="M354.428,64.344c-0.28-1.805-1.431-2.769-3.267-2.769c-2.831,0-3.764,2.862-3.764,5.227
		c0,2.302,0.901,5.071,3.671,5.071c2.053,0,3.235-1.307,3.516-3.267h4.262c-0.561,4.262-3.516,6.595-7.746,6.595
		c-4.854,0-8.12-3.422-8.12-8.244c0-5.008,2.986-8.71,8.213-8.71c3.795,0,7.279,1.991,7.56,6.098H354.428z"/>
	<path style="&st0;" d="M361.328,52.553h4.418v8.369h0.093c1.121-1.805,3.049-2.676,4.697-2.676c4.697,0,5.881,2.645,5.881,6.627
		v9.892h-4.419v-9.083c0-2.645-0.776-3.952-2.83-3.952c-2.396,0-3.422,1.338-3.422,4.604v8.43h-4.418V52.553z"/>
	<path style="&st0;" d="M394.858,74.765h-4.199v-2.24h-0.094c-1.121,1.805-3.049,2.675-4.915,2.675
		c-4.698,0-5.881-2.644-5.881-6.626v-9.892h4.419v9.083c0,2.644,0.776,3.951,2.83,3.951c2.395,0,3.422-1.337,3.422-4.604v-8.43
		h4.418V74.765z"/>
	<path style="&st0;" d="M403.812,58.682h3.235v2.955h-3.235v7.964c0,1.493,0.373,1.866,1.866,1.866c0.467,0,0.902-0.031,1.369-0.124
		v3.453c-0.746,0.124-1.711,0.155-2.582,0.155c-2.706,0-5.071-0.622-5.071-3.826v-9.488h-2.675v-2.955h2.675V53.86h4.418V58.682z"/>
	<path style="&st0;" d="M408.163,71.436l8.369-9.426h-7.746v-3.328h13.562v3.328l-8.368,9.426h8.96v3.329h-14.777V71.436z"/>
</g>
</svg>
